\BOOKMARK [1][-]{section.1}{Working with and implementing of an FEM-solver}{}% 1
\BOOKMARK [2][-]{subsection.1.1}{FEMM}{section.1}% 2
\BOOKMARK [2][-]{subsection.1.2}{Mathematical deduction}{section.1}% 3
\BOOKMARK [3][-]{subsubsection.1.2.1}{From continuous to discrete}{subsection.1.2}% 4
