\relax 
\providecommand\hyper@newdestlabel[2]{}
\providecommand\HyperFirstAtBeginDocument{\AtBeginDocument}
\HyperFirstAtBeginDocument{\ifx\hyper@anchor\@undefined
\global\let\oldcontentsline\contentsline
\gdef\contentsline#1#2#3#4{\oldcontentsline{#1}{#2}{#3}}
\global\let\oldnewlabel\newlabel
\gdef\newlabel#1#2{\newlabelxx{#1}#2}
\gdef\newlabelxx#1#2#3#4#5#6{\oldnewlabel{#1}{{#2}{#3}}}
\AtEndDocument{\ifx\hyper@anchor\@undefined
\let\contentsline\oldcontentsline
\let\newlabel\oldnewlabel
\fi}
\fi}
\global\let\hyper@last\relax 
\gdef\HyperFirstAtBeginDocument#1{#1}
\providecommand\HyField@AuxAddToFields[1]{}
\providecommand\HyField@AuxAddToCoFields[2]{}
\citation{oefening}
\citation{theory}
\select@language{english}
\@writefile{toc}{\select@language{english}}
\@writefile{lof}{\select@language{english}}
\@writefile{lot}{\select@language{english}}
\pgfsyspdfmark {pgfid2}{0}{0}
\pgfsyspdfmark {pgfid1}{6749099}{47362120}
\@writefile{toc}{\contentsline {section}{\numberline {1}Working with and implementing of an FEM-solver}{1}{section.1}}
\@writefile{toc}{\contentsline {subsection}{\numberline {1.1}FEMM}{1}{subsection.1.1}}
\@writefile{lof}{\contentsline {figure}{\numberline {1}{\ignorespaces The SIS100 magnet in Femm\relax }}{1}{figure.caption.2}}
\providecommand*\caption@xref[2]{\@setref\relax\@undefined{#1}}
\newlabel{fig: sis100}{{1}{1}{The SIS100 magnet in Femm\relax }{figure.caption.2}{}}
\@writefile{lof}{\contentsline {subfigure}{\numberline{(a)}{\ignorespaces {The complete SIS100 magnet model}}}{1}{subfigure.1.1}}
\@writefile{lof}{\contentsline {subfigure}{\numberline{(b)}{\ignorespaces {A close-up of the coils}}}{1}{subfigure.1.2}}
\@writefile{lof}{\contentsline {figure}{\numberline {2}{\ignorespaces The results of the Femm simulation\relax }}{3}{figure.caption.3}}
\newlabel{fig: sis100_result}{{2}{3}{The results of the Femm simulation\relax }{figure.caption.3}{}}
\@writefile{lof}{\contentsline {subfigure}{\numberline{(a)}{\ignorespaces {The result with the flux-density shown}}}{3}{subfigure.2.1}}
\@writefile{lof}{\contentsline {subfigure}{\numberline{(b)}{\ignorespaces {The result with the field-density shown}}}{3}{subfigure.2.2}}
\@writefile{toc}{\contentsline {subsection}{\numberline {1.2}Mathematical deduction}{3}{subsection.1.2}}
\@writefile{toc}{\contentsline {subsubsection}{\numberline {1.2.1}From continuous to discrete}{3}{subsubsection.1.2.1}}
\newlabel{eq: maxwell}{{1}{4}{From continuous to discrete}{equation.1.1}{}}
\newlabel{eq: Emag}{{5}{4}{From continuous to discrete}{equation.1.5}{}}
\newlabel{eq: mag}{{6}{4}{From continuous to discrete}{equation.1.6}{}}
\newlabel{eq: electric}{{7}{4}{From continuous to discrete}{equation.1.7}{}}
\newlabel{eq: magnetostatic weak}{{8}{4}{From continuous to discrete}{equation.1.8}{}}
\newlabel{eq: magnetostatic strong}{{9}{4}{From continuous to discrete}{equation.1.9}{}}
\bibdata{articlesPUMA}
\bibcite{oefening}{1}
\bibstyle{ieeetr}
\newlabel{LastPage}{{}{5}{}{page.5}{}}
\xdef\lastpage@lastpage{5}
\xdef\lastpage@lastpageHy{5}
